%YAML 1.1
%TAG !u! tag:unity3d.com,2011:
--- !u!162 &1
EditorUserSettings:
  m_ObjectHideFlags: 0
  serializedVersion: 4
  m_ConfigSettings:
    RecentlyUsedScenePath-0:
      value: 224247031146467a041c0f3011254b50261f0139252b357f08311c3ef2ec3177d1e433e7e22970183c0fe07c373d0431f7441c05ff1f13
      flags: 0
    RecentlyUsedScenePath-1:
      value: 224247031146467a041c0f3011254b50261f0139252b357f08311c3ef2ec3177d1e433e7e22970192103e22c083b4f2afc031d12
      flags: 0
    vcSharedLogLevel:
      value: 0d5e400f0650
      flags: 0
  m_VCAutomaticAdd: 1
  m_VCDebugCom: 0
  m_VCDebugCmd: 0
  m_VCDebugOut: 0
  m_SemanticMergeMode: 2
  m_VCShowFailedCheckout: 1
  m_VCOverwriteFailedCheckoutAssets: 1
  m_VCProjectOverlayIcons: 1
  m_VCHierarchyOverlayIcons: 1
  m_VCOtherOverlayIcons: 1
  m_VCAllowAsyncUpdate: 1
